digraph "delay_ms"
{
  edge [fontname="Helvetica",fontsize="10",labelfontname="Helvetica",labelfontsize="10"];
  node [fontname="Helvetica",fontsize="10",shape=record];
  rankdir="LR";
  Node1 [label="delay_ms",height=0.2,width=0.4,color="black", fillcolor="grey75", style="filled", fontcolor="black"];
  Node1 -> Node2 [dir="back",color="midnightblue",fontsize="10",style="solid"];
  Node2 [label="main",height=0.2,width=0.4,color="black", fillcolor="white", style="filled",URL="$_hello_world3_8c.html#ae66f6b31b5ad750f1fe042a706a4e3d4",tooltip="Toggles LED200 with 1 Hz, 1:1 duty cycle. "];
}
