\relax 
\providecommand\hyper@newdestlabel[2]{}
\providecommand\HyperFirstAtBeginDocument{\AtBeginDocument}
\HyperFirstAtBeginDocument{\ifx\hyper@anchor\@undefined
\global\let\oldcontentsline\contentsline
\gdef\contentsline#1#2#3#4{\oldcontentsline{#1}{#2}{#3}}
\global\let\oldnewlabel\newlabel
\gdef\newlabel#1#2{\newlabelxx{#1}#2}
\gdef\newlabelxx#1#2#3#4#5#6{\oldnewlabel{#1}{{#2}{#3}}}
\AtEndDocument{\ifx\hyper@anchor\@undefined
\let\contentsline\oldcontentsline
\let\newlabel\oldnewlabel
\fi}
\fi}
\global\let\hyper@last\relax 
\gdef\HyperFirstAtBeginDocument#1{#1}
\providecommand\HyField@AuxAddToFields[1]{}
\providecommand\HyField@AuxAddToCoFields[2]{}
\@writefile{toc}{\contentsline {chapter}{\numberline {1}Index Page}{1}{chapter.1}}
\@writefile{lof}{\addvspace {10\p@ }}
\@writefile{lot}{\addvspace {10\p@ }}
\newlabel{index}{{1}{1}{Index Page}{chapter.1}{}}
\@writefile{toc}{\contentsline {section}{\numberline {1.1}General Description}{1}{section.1.1}}
\newlabel{index_genDescr_sec}{{1.1}{1}{General Description}{section.1.1}{}}
\@writefile{toc}{\contentsline {section}{\numberline {1.2}Hardware}{1}{section.1.2}}
\newlabel{index_hardware_sec}{{1.2}{1}{Hardware}{section.1.2}{}}
\@writefile{toc}{\contentsline {subsection}{\numberline {1.2.1}Hardware Variants}{1}{subsection.1.2.1}}
\newlabel{index_hwSub_sec}{{1.2.1}{1}{Hardware Variants}{subsection.1.2.1}{}}
\@writefile{toc}{\contentsline {chapter}{\numberline {2}File Index}{3}{chapter.2}}
\@writefile{lof}{\addvspace {10\p@ }}
\@writefile{lot}{\addvspace {10\p@ }}
\@writefile{toc}{\contentsline {section}{\numberline {2.1}File List}{3}{section.2.1}}
\@writefile{toc}{\contentsline {chapter}{\numberline {3}File Documentation}{5}{chapter.3}}
\@writefile{lof}{\addvspace {10\p@ }}
\@writefile{lot}{\addvspace {10\p@ }}
\@writefile{toc}{\contentsline {section}{\numberline {3.1}Hello\discretionary {-}{}{}World2.\discretionary {-}{}{}c File Reference}{5}{section.3.1}}
\newlabel{_hello_world2_8c}{{3.1}{5}{Hello\-World2.\-c File Reference}{section.3.1}{}}
\gdef \PWST@i{1}
\@writefile{toc}{\contentsline {subsection}{\numberline {3.1.1}Detailed Description}{6}{subsection.3.1.1}}
\@writefile{toc}{\contentsline {subsection}{\numberline {3.1.2}Macro Definition Documentation}{6}{subsection.3.1.2}}
\@writefile{toc}{\contentsline {subsubsection}{\numberline {3.1.2.1}\discretionary {-}{}{}\_\discretionary {-}{}{}\discretionary {-}{}{}L\discretionary {-}{}{}E\discretionary {-}{}{}D200}{6}{subsubsection.3.1.2.1}}
\newlabel{_hello_world2_8c_aaed48328fea330837de1d541b695670d}{{3.1.2.1}{6}{\-\_\-\-L\-E\-D200}{subsubsection.3.1.2.1}{}}
\@writefile{toc}{\contentsline {subsubsection}{\numberline {3.1.2.2}E\discretionary {-}{}{}X\discretionary {-}{}{}I\discretionary {-}{}{}T\discretionary {-}{}{}\_\discretionary {-}{}{}\discretionary {-}{}{}F\discretionary {-}{}{}A\discretionary {-}{}{}I\discretionary {-}{}{}L\discretionary {-}{}{}U\discretionary {-}{}{}R\discretionary {-}{}{}E}{6}{subsubsection.3.1.2.2}}
\newlabel{_hello_world2_8c_a73efe787c131b385070f25d18b7c9aa4}{{3.1.2.2}{6}{E\-X\-I\-T\-\_\-\-F\-A\-I\-L\-U\-R\-E}{subsubsection.3.1.2.2}{}}
\@writefile{toc}{\contentsline {subsubsection}{\numberline {3.1.2.3}E\discretionary {-}{}{}X\discretionary {-}{}{}I\discretionary {-}{}{}T\discretionary {-}{}{}\_\discretionary {-}{}{}\discretionary {-}{}{}S\discretionary {-}{}{}U\discretionary {-}{}{}C\discretionary {-}{}{}C\discretionary {-}{}{}E\discretionary {-}{}{}S\discretionary {-}{}{}S}{6}{subsubsection.3.1.2.3}}
\newlabel{_hello_world2_8c_a687984f47d8cce148d1b914d2b79612a}{{3.1.2.3}{6}{E\-X\-I\-T\-\_\-\-S\-U\-C\-C\-E\-S\-S}{subsubsection.3.1.2.3}{}}
\@writefile{toc}{\contentsline {subsection}{\numberline {3.1.3}Function Documentation}{6}{subsection.3.1.3}}
\@writefile{toc}{\contentsline {subsubsection}{\numberline {3.1.3.1}\discretionary {-}{}{}\_\discretionary {-}{}{}\discretionary {-}{}{}F\discretionary {-}{}{}O\discretionary {-}{}{}S\discretionary {-}{}{}C}{6}{subsubsection.3.1.3.1}}
\newlabel{_hello_world2_8c_a61a04e749f40a2b62f8de09236a23ce6}{{3.1.3.1}{6}{\-\_\-\-F\-O\-S\-C}{subsubsection.3.1.3.1}{}}
\@writefile{toc}{\contentsline {subsubsection}{\numberline {3.1.3.2}\discretionary {-}{}{}\_\discretionary {-}{}{}\discretionary {-}{}{}F\discretionary {-}{}{}O\discretionary {-}{}{}S\discretionary {-}{}{}C\discretionary {-}{}{}S\discretionary {-}{}{}E\discretionary {-}{}{}L}{6}{subsubsection.3.1.3.2}}
\newlabel{_hello_world2_8c_a1f976e76f91a7307ec1a273833c066a8}{{3.1.3.2}{6}{\-\_\-\-F\-O\-S\-C\-S\-E\-L}{subsubsection.3.1.3.2}{}}
\@writefile{toc}{\contentsline {subsubsection}{\numberline {3.1.3.3}delay\discretionary {-}{}{}\_\discretionary {-}{}{}ms}{6}{subsubsection.3.1.3.3}}
\newlabel{_hello_world2_8c_a6c2d68361d4f6f99cb99596fd9b9690c}{{3.1.3.3}{6}{delay\-\_\-ms}{subsubsection.3.1.3.3}{}}
\@writefile{toc}{\contentsline {subsubsection}{\numberline {3.1.3.4}main}{7}{subsubsection.3.1.3.4}}
\newlabel{_hello_world2_8c_ae66f6b31b5ad750f1fe042a706a4e3d4}{{3.1.3.4}{7}{main}{subsubsection.3.1.3.4}{}}
\@writefile{toc}{\contentsline {section}{\numberline {3.2}readme.\discretionary {-}{}{}c File Reference}{7}{section.3.2}}
\newlabel{readme_8c}{{3.2}{7}{readme.\-c File Reference}{section.3.2}{}}
\@writefile{toc}{\contentsline {chapter}{Index}{8}{section*.4}}
