\contentsline {chapter}{\numberline {1}Index Page}{1}{chapter.1}
\contentsline {section}{\numberline {1.1}General Description}{1}{section.1.1}
\contentsline {section}{\numberline {1.2}Hardware}{1}{section.1.2}
\contentsline {subsection}{\numberline {1.2.1}Hardware Variants}{1}{subsection.1.2.1}
\contentsline {chapter}{\numberline {2}File Index}{3}{chapter.2}
\contentsline {section}{\numberline {2.1}File List}{3}{section.2.1}
\contentsline {chapter}{\numberline {3}File Documentation}{5}{chapter.3}
\contentsline {section}{\numberline {3.1}Hello\discretionary {-}{}{}World2.\discretionary {-}{}{}c File Reference}{5}{section.3.1}
\contentsline {subsection}{\numberline {3.1.1}Detailed Description}{6}{subsection.3.1.1}
\contentsline {subsection}{\numberline {3.1.2}Macro Definition Documentation}{6}{subsection.3.1.2}
\contentsline {subsubsection}{\numberline {3.1.2.1}\discretionary {-}{}{}\_\discretionary {-}{}{}\discretionary {-}{}{}L\discretionary {-}{}{}E\discretionary {-}{}{}D200}{6}{subsubsection.3.1.2.1}
\contentsline {subsubsection}{\numberline {3.1.2.2}E\discretionary {-}{}{}X\discretionary {-}{}{}I\discretionary {-}{}{}T\discretionary {-}{}{}\_\discretionary {-}{}{}\discretionary {-}{}{}F\discretionary {-}{}{}A\discretionary {-}{}{}I\discretionary {-}{}{}L\discretionary {-}{}{}U\discretionary {-}{}{}R\discretionary {-}{}{}E}{6}{subsubsection.3.1.2.2}
\contentsline {subsubsection}{\numberline {3.1.2.3}E\discretionary {-}{}{}X\discretionary {-}{}{}I\discretionary {-}{}{}T\discretionary {-}{}{}\_\discretionary {-}{}{}\discretionary {-}{}{}S\discretionary {-}{}{}U\discretionary {-}{}{}C\discretionary {-}{}{}C\discretionary {-}{}{}E\discretionary {-}{}{}S\discretionary {-}{}{}S}{6}{subsubsection.3.1.2.3}
\contentsline {subsection}{\numberline {3.1.3}Function Documentation}{6}{subsection.3.1.3}
\contentsline {subsubsection}{\numberline {3.1.3.1}\discretionary {-}{}{}\_\discretionary {-}{}{}\discretionary {-}{}{}F\discretionary {-}{}{}O\discretionary {-}{}{}S\discretionary {-}{}{}C}{6}{subsubsection.3.1.3.1}
\contentsline {subsubsection}{\numberline {3.1.3.2}\discretionary {-}{}{}\_\discretionary {-}{}{}\discretionary {-}{}{}F\discretionary {-}{}{}O\discretionary {-}{}{}S\discretionary {-}{}{}C\discretionary {-}{}{}S\discretionary {-}{}{}E\discretionary {-}{}{}L}{6}{subsubsection.3.1.3.2}
\contentsline {subsubsection}{\numberline {3.1.3.3}delay\discretionary {-}{}{}\_\discretionary {-}{}{}ms}{6}{subsubsection.3.1.3.3}
\contentsline {subsubsection}{\numberline {3.1.3.4}main}{7}{subsubsection.3.1.3.4}
\contentsline {section}{\numberline {3.2}readme.\discretionary {-}{}{}c File Reference}{7}{section.3.2}
\contentsline {chapter}{Index}{8}{section*.4}
