digraph "C:/Users/00670/Documents/Hochschule/_Tier1/73304_TechnischeInformatik/Code/HelloWorld4.X/myxc.h"
{
  edge [fontname="Helvetica",fontsize="10",labelfontname="Helvetica",labelfontsize="10"];
  node [fontname="Helvetica",fontsize="10",shape=record];
  Node2 [label="C:/Users/00670/Documents\l/Hochschule/_Tier1/73304\l_TechnischeInformatik/Code\l/HelloWorld4.X/myxc.h",height=0.2,width=0.4,color="black", fillcolor="grey75", style="filled", fontcolor="black"];
  Node2 -> Node3 [dir="back",color="midnightblue",fontsize="10",style="solid"];
  Node3 [label="C:/Users/00670/Documents\l/Hochschule/_Tier1/73304\l_TechnischeInformatik/Code\l/HelloWorld4.X/HelloWorld4.c",height=0.2,width=0.4,color="black", fillcolor="white", style="filled",URL="$_hello_world4_8c.html"];
}
